The purpose of the files in this directory is the NLO calculation of the process
	p + p -> Z + Z

J. M. Campbell and R. K. Ellis,
``An Update on vector boson pair production at hadron colliders,''
Phys. Rev. D 60, 113006 (1999)
[arXiv:hep-ph/9905386 [hep-ph]].

J. M. Campbell, R. K. Ellis and C. Williams,
``Vector boson pair production at the LHC,''
JHEP 07, 018 (2011)
[arXiv:1105.0020 [hep-ph]].


