The purpose of the files in this directory is the NLO calculation of the process
	p + p -> Z + Q + jet

J. M. Campbell, R. K. Ellis, F. Maltoni and S. Willenbrock,
``Production of a $Z$ boson and two jets with one heavy-quark tag,''
Phys. Rev. D 73, 054007 (2006)
[erratum: Phys. Rev. D 77, 019903 (2008)]
[arXiv:hep-ph/0510362 [hep-ph]].


