The purpose of the files in this directory is the NLO calculation of the process
	p + p -> t + t~ + W (with decays)

J. M. Campbell and R. K. Ellis,
``$t \bar{t} W^{+-}$ production and decay at NLO,''
JHEP 07, 052 (2012)
[arXiv:1204.5678 [hep-ph]].

